codes/hw4.vcd
$date
	Sun May  2 02:33:50 2021
$end
$version
	Icarus Verilog
$end
$timescale
	1s
$end
$scope module TestBench $end
$var reg 1 ! Clk $end
$var reg 1 " Reset $end
$var reg 1 # Start $end
$var integer 32 $ counter [31:0] $end
$var integer 32 % i [31:0] $end
$var integer 32 & outfile [31:0] $end
$scope module CPU $end
$var wire 3 ' ALUCtrl [2:0] $end
$var wire 2 ( ALUOp [1:0] $end
$var wire 1 ) ALUSrc $end
$var wire 32 * MUX_data [31:0] $end
$var wire 32 + RS1data [31:0] $end
$var wire 32 , RS2data [31:0] $end
$var wire 1 - RegWrite $end
$var wire 1 . Zero $end
$var wire 1 / clk_i $end
$var wire 32 0 data [31:0] $end
$var wire 32 1 instr [31:0] $end
$var wire 32 2 pc_i [31:0] $end
$var wire 32 3 pc_o [31:0] $end
$var wire 1 4 rst_i $end
$var wire 32 5 sign_data [31:0] $end
$var wire 1 6 start_i $end
$scope module Control $end
$var wire 7 7 Op_i [6:0] $end
$var reg 2 8 ALUOp_o [1:0] $end
$var reg 1 9 ALUSrc_o $end
$var reg 1 : RegWrite_o $end
$upscope $end
$scope module Add_PC $end
$var wire 32 ; data1_in [31:0] $end
$var wire 32 < data2_in [31:0] $end
$var reg 32 = data_o [31:0] $end
$upscope $end
$scope module PC $end
$var wire 1 / clk_i $end
$var wire 32 > pc_i [31:0] $end
$var wire 1 4 rst_i $end
$var wire 1 6 start_i $end
$var reg 32 ? pc_o [31:0] $end
$upscope $end
$scope module Instruction_Memory $end
$var wire 32 @ addr_i [31:0] $end
$var wire 32 A instr_o [31:0] $end
$upscope $end
$scope module Registers $end
$var wire 5 B RDaddr_i [4:0] $end
$var wire 32 C RDdata_i [31:0] $end
$var wire 5 D RS1addr_i [4:0] $end
$var wire 32 E RS1data_o [31:0] $end
$var wire 5 F RS2addr_i [4:0] $end
$var wire 32 G RS2data_o [31:0] $end
$var wire 1 - RegWrite_i $end
$var wire 1 / clk_i $end
$upscope $end
$scope module MUX_ALUSrc $end
$var wire 32 H data1_i [31:0] $end
$var wire 32 I data2_i [31:0] $end
$var wire 1 ) select_i $end
$var reg 32 J data_o [31:0] $end
$upscope $end
$scope module Sign_Extend $end
$var wire 12 K data_i [11:0] $end
$var reg 32 L data_o [31:0] $end
$upscope $end
$scope module ALU $end
$var wire 3 M ALUCtrl_i [2:0] $end
$var wire 32 N data1_i [31:0] $end
$var wire 32 O data2_i [31:0] $end
$var reg 1 P Zero_o $end
$var reg 32 Q data_o [31:0] $end
$upscope $end
$scope module ALU_Control $end
$var wire 2 R ALUOp_i [1:0] $end
$var wire 10 S funct_i [9:0] $end
$var reg 3 T ALUCtrl_o [2:0] $end
$upscope $end
$upscope $end
$upscope $end
$enddefinitions $end
#0
$dumpvars
b110 T
b0 S
b0 R
b1010 Q
0P
b1010 O
b0 N
b110 M
b1010 L
b1010 K
b1010 J
b1010 I
b0 H
b0 G
b1010 F
b0 E
b0 D
b1010 C
b101 B
b101000000000001010010011 A
b0 @
b0 ?
b100 >
b100 =
b100 <
b0 ;
1:
19
b0 8
b10011 7
06
b1010 5
04
b0 3
b100 2
b101000000000001010010011 1
b1010 0
0/
0.
1-
b0 ,
b0 +
b1010 *
1)
b0 (
b110 '
b11 &
b100000 %
b0 $
0#
0"
0!
$end
#12
1#
16
1"
14
#25
b1101 Q
b1101 0
b1101 C
b1101 J
b1101 *
b1101 O
b1101 L
b1101 5
b1101 I
b1101 K
b110 B
b1101 F
b110100000000001100010011 1
b110100000000001100010011 A
b1000 =
b1000 2
b1000 >
b100 ?
b100 3
b100 ;
b100 @
b1 $
1!
1/
#50
0!
0/
#75
b101 T
b101 '
b101 M
b100110 L
b100110 5
b100110 I
b10000010 Q
b10000010 0
b10000010 C
b10 8
b10 (
b10 R
09
0)
1:
b1000 S
b100110 K
b111 B
b110 F
b1101 ,
b1101 G
b1101 H
b101 D
b1010 +
b1010 E
b1010 N
b110011 7
b10011000101000001110110011 1
b10011000101000001110110011 A
b1100 =
b1100 2
b1100 >
b1000 ?
b1000 3
b1000 ;
b1000 @
b10 $
1!
1/
#100
0!
0/
#125
b10101001 Q
b10101001 0
b10101001 C
b11100 B
b110 D
b1101 +
b1101 E
b1101 N
b10011000110000111000110011 1
b10011000110000111000110011 A
b10000 =
b10000 2
b10000 >
b1100 ?
b1100 3
b1100 ;
b1100 @
b11 $
1!
1/
#150
0!
0/
#175
b1100 Q
b1100 0
b1100 C
b110 T
b110 '
b110 M
b11111111111111111111111111111111 L
b11111111111111111111111111111111 5
b11111111111111111111111111111111 I
b11111111111111111111111111111111 J
b11111111111111111111111111111111 *
b11111111111111111111111111111111 O
b0 8
b0 (
b0 R
19
1)
1:
b1111111000 S
b111111111111 K
b110 B
b11111 F
b0 ,
b0 G
b0 H
b10011 7
b11111111111100110000001100010011 1
b11111111111100110000001100010011 A
b10100 =
b10100 2
b10100 >
b10000 ?
b10000 3
b10000 ;
b10000 @
b100 $
1!
1/
#200
0!
0/
#225
b11111 J
b11111 *
b11111 O
b11111 L
b11111 5
b11111 I
b0 S
b11111 K
b11110 B
b0 D
b11111 Q
b11111 0
b11111 C
b1111100000000111100010011 1
b1111100000000111100010011 A
b11000 =
b11000 2
b11000 >
b0 +
b0 E
b0 N
b10100 ?
b10100 3
b10100 ;
b10100 @
b101 $
1!
1/
#250
0!
0/
#275
1P
1.
b0 T
b0 '
b0 M
b111 L
b111 5
b111 I
b10000010 J
b10000010 *
b10000010 O
b0 Q
b0 0
b0 C
b10 8
b10 (
b10 R
09
0)
1:
b111 S
b111 K
b11100 B
b111 F
b10000010 ,
b10000010 G
b10000010 H
b110 D
b1100 +
b1100 E
b1100 N
b110011 7
b11100110111111000110011 1
b11100110111111000110011 A
b11100 =
b11100 2
b11100 >
b11000 ?
b11000 3
b11000 ;
b11000 @
b110 $
1!
1/
#300
0!
0/
#325
0P
0.
b10000010 Q
b10000010 0
b10000010 C
b1 T
b1 '
b1 M
b100 S
b11101 B
b11100 D
b0 +
b0 E
b0 N
b11111100100111010110011 1
b11111100100111010110011 A
b100000 =
b100000 2
b100000 >
b11100 ?
b11100 3
b11100 ;
b11100 @
b111 $
1!
1/
#350
0!
0/
#375
1P
1.
b0 Q
b0 0
b0 C
b1101 L
b1101 5
b1101 I
b0 J
b0 *
b0 O
b1101 K
b1110 B
b1101 F
b0 ,
b0 G
b0 H
b1010 D
b110101010100011100110011 1
b110101010100011100110011 A
b100100 =
b100100 2
b100100 >
b100000 ?
b100000 3
b100000 ;
b100000 @
b1000 $
1!
1/
#400
0!
0/
#425
0P
0.
b11111111111111111111111101111110 Q
b11111111111111111111111101111110 0
b11111111111111111111111101111110 C
b100 T
b100 '
b100 M
b10000000111 L
b10000000111 5
b10000000111 I
b10000010 J
b10000010 *
b10000010 O
b100000000 S
b10000000111 K
b101 B
b111 F
b10000010 ,
b10000010 G
b10000010 H
b11100 D
b1000000011111100000001010110011 1
b1000000011111100000001010110011 A
b101000 =
b101000 2
b101000 >
b100100 ?
b100100 3
b100100 ;
b100100 @
b1001 $
1!
1/
#450
0!
0/
#475
b11111111111111111111111111111000 Q
b11111111111111111111111111111000 0
b11111111111111111111111111111000 C
b110 T
b110 '
b110 M
b11111111111111111111111111111000 L
b11111111111111111111111111111000 5
b11111111111111111111111111111000 I
b11111111111111111111111111111000 J
b11111111111111111111111111111000 *
b11111111111111111111111111111000 O
b0 8
b0 (
b0 R
19
1)
1:
b1111111000 S
b111111111000 K
b11111 B
b11000 F
b0 ,
b0 G
b0 H
b11111 D
b10011 7
b11111111100011111000111110010011 1
b11111111100011111000111110010011 A
b101100 =
b101100 2
b101100 >
b101000 ?
b101000 3
b101000 ;
b101000 @
b1010 $
1!
1/
#500
0!
0/
#525
b11111111111111111111111111110000 Q
b11111111111111111111111111110000 0
b11111111111111111111111111110000 C
b110000 =
b110000 2
b110000 >
b11111111111111111111111111111000 +
b11111111111111111111111111111000 E
b11111111111111111111111111111000 N
b101100 ?
b101100 3
b101100 ;
b101100 @
b1011 $
1!
1/
#550
0!
0/
#575
b11111111111111111111111111101000 Q
b11111111111111111111111111101000 0
b11111111111111111111111111101000 C
b110100 =
b110100 2
b110100 >
b11111111111111111111111111110000 +
b11111111111111111111111111110000 E
b11111111111111111111111111110000 N
b110000 ?
b110000 3
b110000 ;
b110000 @
b1100 $
1!
1/
#600
0!
0/
#625
b111111 J
b111111 *
b111111 O
b111111 L
b111111 5
b111111 I
b1000 S
b111111 K
b111 B
b11111 F
b11111111111111111111111111101000 ,
b11111111111111111111111111101000 G
b11111111111111111111111111101000 H
b0 D
b111111 Q
b111111 0
b111111 C
b11111100000000001110010011 1
b11111100000000001110010011 A
b111000 =
b111000 2
b111000 >
b0 +
b0 E
b0 N
b110100 ?
b110100 3
b110100 ;
b110100 @
b1101 $
1!
1/
#650
0!
0/
#675
b10000000010 J
b10000000010 *
b10000000010 O
b111 T
b111 '
b111 M
b10000000010 L
b10000000010 5
b10000000010 I
b1111 Q
b1111 0
b1111 C
b100000101 S
b10000000010 K
b10 F
b0 ,
b0 G
b0 H
b111 D
b111111 +
b111111 E
b111111 N
b1000000001000111101001110010011 1
b1000000001000111101001110010011 A
b111100 =
b111100 2
b111100 >
b111000 ?
b111000 3
b111000 ;
b111000 @
b1110 $
1!
1/
#700
0!
0/
#725
b11 Q
b11 0
b11 C
b1000000 =
b1000000 2
b1000000 >
b1111 +
b1111 E
b1111 N
b111100 ?
b111100 3
b111100 ;
b111100 @
b1111 $
1!
1/
#750
0!
0/
#775
1P
1.
b0 Q
b0 0
b0 C
b1000100 =
b1000100 2
b1000100 >
b11 +
b11 E
b11 N
b1000000 ?
b1000000 3
b1000000 ;
b1000000 @
b10000 $
1!
1/
#800
0!
0/
#825
b10000000001 J
b10000000001 *
b10000000001 O
b10000000001 L
b10000000001 5
b10000000001 I
0P
0.
b110 Q
b110 0
b110 C
b10000000001 K
b110 B
b1 F
b110 D
b1000000000100110101001100010011 1
b1000000000100110101001100010011 A
b1001000 =
b1001000 2
b1001000 >
b1100 +
b1100 E
b1100 N
b1000100 ?
b1000100 3
b1000100 ;
b1000100 @
b10001 $
1!
1/
#850
0!
0/
#875
b11 Q
b11 0
b11 C
b1001100 =
b1001100 2
b1001100 >
b110 +
b110 E
b110 N
b1001000 ?
b1001000 3
b1001000 ;
b1001000 @
b10010 $
1!
1/
#900
0!
0/
#925
b1 Q
b1 0
b1 C
b1010000 =
b1010000 2
b1010000 >
b11 +
b11 E
b11 N
b1001100 ?
b1001100 3
b1001100 ;
b1001100 @
b10011 $
1!
1/
#950
0!
0/
#975
b10 T
b10 '
b10 M
b110 L
b110 5
b110 I
b1 J
b1 *
b1 O
b10 8
b10 (
b10 R
09
0)
1:
b1 S
b110 K
b11111 B
b110 F
b1 ,
b1 G
b1 H
b11111 D
b110011 7
0P
0.
b11111111111111111111111111010000 Q
b11111111111111111111111111010000 0
b11111111111111111111111111010000 C
b11011111001111110110011 1
b11011111001111110110011 A
b1010100 =
b1010100 2
b1010100 >
b11111111111111111111111111101000 +
b11111111111111111111111111101000 E
b11111111111111111111111111101000 N
b1010000 ?
b1010000 3
b1010000 ;
b1010000 @
b10100 $
1!
1/
#1000
0!
0/
#1025
b11111111111111111111111110100000 Q
b11111111111111111111111110100000 0
b11111111111111111111111110100000 C
b1011000 =
b1011000 2
b1011000 >
b11111111111111111111111111010000 +
b11111111111111111111111111010000 E
b11111111111111111111111111010000 N
b1010100 ?
b1010100 3
b1010100 ;
b1010100 @
b10101 $
1!
1/
#1050
0!
0/
#1075
b110 T
b110 '
b110 M
b0 L
b0 5
b0 I
b0 J
b0 *
b0 O
1P
1.
b0 8
b0 (
b0 R
19
1)
1:
b0 S
b0 K
b0 B
b0 F
b0 ,
b0 G
b0 H
b0 D
b0 7
b0 Q
b0 0
b0 C
b0 1
b0 A
b1011100 =
b1011100 2
b1011100 >
b0 +
b0 E
b0 N
b1011000 ?
b1011000 3
b1011000 ;
b1011000 @
b10110 $
1!
1/
#1100
0!
0/
#1125
b1100000 =
b1100000 2
b1100000 >
b1011100 ?
b1011100 3
b1011100 ;
b1011100 @
b10111 $
1!
1/
#1150
0!
0/
#1175
b1100100 =
b1100100 2
b1100100 >
b1100000 ?
b1100000 3
b1100000 ;
b1100000 @
b11000 $
1!
1/
#1200
0!
0/
#1225
b1101000 =
b1101000 2
b1101000 >
b1100100 ?
b1100100 3
b1100100 ;
b1100100 @
b11001 $
1!
1/
#1250
0!
0/
#1275
b1101100 =
b1101100 2
b1101100 >
b1101000 ?
b1101000 3
b1101000 ;
b1101000 @
b11010 $
1!
1/
#1300
0!
0/
#1325
b1110000 =
b1110000 2
b1110000 >
b1101100 ?
b1101100 3
b1101100 ;
b1101100 @
b11011 $
1!
1/
#1350
0!
0/
#1375
b1110100 =
b1110100 2
b1110100 >
b1110000 ?
b1110000 3
b1110000 ;
b1110000 @
b11100 $
1!
1/
#1400
0!
0/
#1425
b1111000 =
b1111000 2
b1111000 >
b1110100 ?
b1110100 3
b1110100 ;
b1110100 @
b11101 $
1!
1/
#1450
0!
0/
#1475
b1111100 =
b1111100 2
b1111100 >
b1111000 ?
b1111000 3
b1111000 ;
b1111000 @
b11110 $
1!
1/
#1500
0!
0/
#1525
b10000000 =
b10000000 2
b10000000 >
b1111100 ?
b1111100 3
b1111100 ;
b1111100 @
1!
1/
